{
  "name": "Office Routine",
  "fonts": [],
  "template_img": {
    "img": "Office_routine.png",
    "img2x": "Office_routine_2x.png",
    "img3x": "Office_routine_3x.png",
    "img_ipad": "Office_routine_ipad.png",
    "img_ipad_2x": "Office_routine_ipad_2x.png"
  },
  "slide_img": {
    "title": "Slide_title.png",
    "regular": "Slide_regular.png",
    "end": "Slide_end.png",
    "hero": "Slide_hero.png"
  },
  "symbol_limits": {
    "slide_symbols": 600,
    "heading_symbols": 39,
    "title_symbols": 70,
    "subtitle_symbols": 130,
    "hero_symbols": 300
  }
}